{"mappings":[{"shop_sale_name":"음식물 과민증 분석","shop_opt_name":"검사권 선택:지연성알러지검사 1인권","product_code":"BKG000001","quantity":1,"mapping_type":"auto","verified":false,"order_count":"3586"},{"shop_sale_name":"음식물 과민증 분석","shop_opt_name":"검사권 선택:지연성알러지검사 2인권","product_code":"BKG000001","quantity":1,"mapping_type":"auto","verified":false,"order_count":"656"},{"shop_sale_name":"바이오컴 지연성 알러지/음식물 과민증 검사","shop_opt_name":"스마트스토어 오픈기념: 1개","product_code":"BKG000001","quantity":1,"mapping_type":"auto","verified":false,"order_count":"515"},{"shop_sale_name":"음식물 과민증 분석","shop_opt_name":"검사권 선택:[3만 이벤트] 지연성알러지검사 1인권+영데이즈 1개","product_code":"BKG000001","quantity":1,"mapping_type":"auto","verified":false,"order_count":"515"},{"shop_sale_name":"음식물 과민증 분석","shop_opt_name":"검사권 선택:[3만 이벤트] 지연성알러지검사 1인권+뉴로마스터 1개","product_code":"BKG000001","quantity":1,"mapping_type":"auto","verified":false,"order_count":"451"},{"shop_sale_name":"종합 대사기능&음식물 과민증 검사 Set","shop_opt_name":"인기 2종 ~40% OFF:1인 검사 SET 1 (대사기능+음식물과민증)","product_code":"BKG000005","quantity":1,"mapping_type":"auto","verified":false,"order_count":"361"},{"shop_sale_name":"종합 대사기능&음식물 과민증 검사 Set","shop_opt_name":"인기 2종 ~40% OFF:1인 검사 SET 1 (대사기능+음식물과민증)","product_code":"BKG000001","quantity":1,"mapping_type":"auto","verified":false,"order_count":"361"},{"shop_sale_name":"영양 중금속 분석","shop_opt_name":"검사권 선택:영양·중금속 검사 1인권","product_code":"BKG000002","quantity":1,"mapping_type":"auto","verified":false,"order_count":"316"},{"shop_sale_name":"종합 대사기능 분석","shop_opt_name":"검사권 선택:종합 대사기능 분석 1인권","product_code":"BKG000005","quantity":1,"mapping_type":"auto","verified":false,"order_count":"295"},{"shop_sale_name":"[오늘출발]바이오컴 지연성 알러지 검사 음식물 과민증 IgG 키트","shop_opt_name":"스마트스토어 오픈기념: 1개","product_code":"BKG000001","quantity":1,"mapping_type":"auto","verified":false,"order_count":"189"},{"shop_sale_name":"종합 대사기능&음식물 과민증 검사 set","shop_opt_name":"","product_code":"BKG000005","quantity":1,"mapping_type":"auto","verified":false,"order_count":"122"},{"shop_sale_name":"[갱선생] 음식물 과민증 분석","shop_opt_name":"검사권 선택:[10%] 지연성알러지검사 1인권","product_code":"BKG000001","quantity":1,"mapping_type":"auto","verified":false,"order_count":"122"},{"shop_sale_name":"종합 대사기능&음식물 과민증 검사 set","shop_opt_name":"","product_code":"BKG000001","quantity":1,"mapping_type":"auto","verified":false,"order_count":"122"},{"shop_sale_name":"[송율공구 5차] 음식물 과민증 분석","shop_opt_name":"시크릿 10% 할인가:지연성알러지검사 1인권","product_code":"BKG000001","quantity":1,"mapping_type":"auto","verified":false,"order_count":"120"},{"shop_sale_name":"음식물 과민증 분석","shop_opt_name":"검사권 선택:지연성알러지검사 3인권","product_code":"BKG000001","quantity":1,"mapping_type":"auto","verified":false,"order_count":"100"},{"shop_sale_name":"[어떤약사] 음식물 과민증 분석","shop_opt_name":"검사권 선택:[10%][3만 이벤트] 지연성알러지검사 1인권+뉴로마스터 1개","product_code":"BKG000001","quantity":1,"mapping_type":"auto","verified":false,"order_count":"87"},{"shop_sale_name":"음식물 과민증 분석","shop_opt_name":"검사권 선택:[3만 이벤트] 지연성알러지검사 2인권+영데이즈 2개","product_code":"BKG000001","quantity":1,"mapping_type":"auto","verified":false,"order_count":"87"},{"shop_sale_name":"영양 중금속 분석","shop_opt_name":"검사권 선택:영양·중금속 검사 2인권","product_code":"BKG000002","quantity":1,"mapping_type":"auto","verified":false,"order_count":"86"},{"shop_sale_name":"장내세균 분석","shop_opt_name":"검사권 선택:장내세균분석 1인권","product_code":"BKG000004","quantity":1,"mapping_type":"auto","verified":false,"order_count":"76"},{"shop_sale_name":"바이오컴 지연성 알러지 검사 음식물 과민증 IgG 키트","shop_opt_name":"스마트스토어 오픈기념: 1개","product_code":"BKG000001","quantity":1,"mapping_type":"auto","verified":false,"order_count":"74"},{"shop_sale_name":"[이아리] 음식물 과민증 분석","shop_opt_name":"검사권 선택:[10%] 지연성알러지검사 1인권","product_code":"BKG000001","quantity":1,"mapping_type":"auto","verified":false,"order_count":"73"},{"shop_sale_name":"음식물 과민증 분석","shop_opt_name":"검사권 선택:[3만 이벤트] 지연성알러지검사 2인권+뉴로마스터 2개","product_code":"BKG000001","quantity":1,"mapping_type":"auto","verified":false,"order_count":"70"},{"shop_sale_name":"음식물 과민증 분석","shop_opt_name":"검사권 선택:[런칭이벤트] 지연성알러지검사 1인권+메타드림 1개","product_code":"BKG000001","quantity":1,"mapping_type":"auto","verified":false,"order_count":"58"},{"shop_sale_name":"[hoo] 음식물 과민증 분석","shop_opt_name":"검사권 선택:[10%] 지연성알러지검사 1인권","product_code":"BKG000001","quantity":1,"mapping_type":"auto","verified":false,"order_count":"57"},{"shop_sale_name":"영양 중금속 분석","shop_opt_name":"검사권 선택:영양·중금속 검사 3인권","product_code":"BKG000002","quantity":1,"mapping_type":"auto","verified":false,"order_count":"49"},{"shop_sale_name":"스트레스 노화 분석","shop_opt_name":"호르몬 분석하기:스트레스·노화 분석 1인권","product_code":"BKG000007","quantity":1,"mapping_type":"auto","verified":false,"order_count":"48"},{"shop_sale_name":"스트레스 노화 분석","shop_opt_name":"호르몬 분석하기:스트레스·노화 분석 1인권","product_code":"BKG000006","quantity":1,"mapping_type":"auto","verified":false,"order_count":"48"},{"shop_sale_name":"[연뜰살뜰 2차] 음식물 과민증 분석","shop_opt_name":"검사권 선택:[10%] 지연성알러지검사 1인권","product_code":"BKG000001","quantity":1,"mapping_type":"auto","verified":false,"order_count":"45"},{"shop_sale_name":"종합 대사기능 분석","shop_opt_name":"런칭 기념 33% OFF:종합 대사기능 분석 1인권","product_code":"BKG000005","quantity":1,"mapping_type":"auto","verified":false,"order_count":"43"},{"shop_sale_name":"[서영] 음식물 과민증 분석","shop_opt_name":"검사권 선택:[10%][3만 이벤트] 지연성알러지검사 1인권+영데이즈 1개","product_code":"BKG000001","quantity":1,"mapping_type":"auto","verified":false,"order_count":"42"},{"shop_sale_name":"종합 대사기능&음식물 과민증 검사 Set","shop_opt_name":"인기 2종 ~40% OFF:2인 검사 SET 2(대사기능 2+음식물과민증 2)","product_code":"BKG000001","quantity":1,"mapping_type":"auto","verified":false,"order_count":"42"},{"shop_sale_name":"종합 대사기능&음식물 과민증 검사 Set","shop_opt_name":"인기 2종 ~40% OFF:2인 검사 SET 2(대사기능 2+음식물과민증 2)","product_code":"BKG000005","quantity":1,"mapping_type":"auto","verified":false,"order_count":"42"},{"shop_sale_name":"내부 확인용","shop_opt_name":"제품:지연성알러지검사 1인권, 사용처:협찬 제공(기안 승인 후 세부 관리자메모 작성)","product_code":"BKG000001","quantity":1,"mapping_type":"auto","verified":false,"order_count":"40"},{"shop_sale_name":"[이아리] 음식물 과민증 분석","shop_opt_name":"검사권 선택:[10%] 지연성알러지검사 2인권","product_code":"BKG000001","quantity":1,"mapping_type":"auto","verified":false,"order_count":"40"},{"shop_sale_name":"[갱선생] 음식물 과민증 분석","shop_opt_name":"검사권 선택:[10%] 지연성알러지검사 2인권","product_code":"BKG000001","quantity":1,"mapping_type":"auto","verified":false,"order_count":"34"},{"shop_sale_name":"[어떤약사 2차] 음식물 과민증 분석","shop_opt_name":"검사권 선택:지연성알러지검사 1인권","product_code":"BKG000001","quantity":1,"mapping_type":"auto","verified":false,"order_count":"32"},{"shop_sale_name":"[호두] 음식물 과민증 분석","shop_opt_name":"검사권 선택:[10%] 지연성알러지검사 1인권","product_code":"BKG000001","quantity":1,"mapping_type":"auto","verified":false,"order_count":"32"},{"shop_sale_name":"종합 대사기능 & 음식물 과민증 검사 Set","shop_opt_name":"인기 2종 ~40% OFF:1인 검사 SET 1 (대사기능+음식물과민증)","product_code":"BKG000001","quantity":1,"mapping_type":"auto","verified":false,"order_count":"30"},{"shop_sale_name":"종합 대사기능 & 음식물 과민증 검사 Set","shop_opt_name":"인기 2종 ~40% OFF:1인 검사 SET 1 (대사기능+음식물과민증)","product_code":"BKG000005","quantity":1,"mapping_type":"auto","verified":false,"order_count":"30"},{"shop_sale_name":"종합 대사기능 분석","shop_opt_name":"검사권 선택:종합 대사기능 분석 2인권","product_code":"BKG000005","quantity":1,"mapping_type":"auto","verified":false,"order_count":"28"},{"shop_sale_name":"내부 확인용","shop_opt_name":"제품:종합대사기능분석 1인권, 사용처:내부사용(기안 승인 후 세부 관리자메모 작성)","product_code":"BKG000005","quantity":1,"mapping_type":"auto","verified":false,"order_count":"28"},{"shop_sale_name":"[오늘출발]바이오컴 지연성 알러지 검사 음식물 과민증 IgG 체질검사 키트 1인권","shop_opt_name":"","product_code":"BKG000001","quantity":1,"mapping_type":"auto","verified":false,"order_count":"27"},{"shop_sale_name":"[나나베베] 음식물 과민증 분석","shop_opt_name":"검사권 선택:[10%][3만 이벤트] 지연성알러지검사 1인권+영데이즈 1개","product_code":"BKG000001","quantity":1,"mapping_type":"auto","verified":false,"order_count":"26"},{"shop_sale_name":"[송율공구 5차] 음식물 과민증 분석","shop_opt_name":"시크릿 10% 할인가:지연성알러지검사 2인권","product_code":"BKG000001","quantity":1,"mapping_type":"auto","verified":false,"order_count":"26"},{"shop_sale_name":"내부 확인용","shop_opt_name":"제품:종합대사기능분석 1인권, 사용처:협찬 제공(기안 승인 후 세부 관리자메모 작성)","product_code":"BKG000005","quantity":1,"mapping_type":"auto","verified":false,"order_count":"24"},{"shop_sale_name":"[제제로운건강생활] 음식물 과민증 분석","shop_opt_name":"검사권 선택:[10%] 지연성알러지검사 1인권","product_code":"BKG000001","quantity":1,"mapping_type":"auto","verified":false,"order_count":"23"},{"shop_sale_name":"종합 호르몬균형 분석","shop_opt_name":"검사권 선택:종합 호르몬 균형 검사 1인권","product_code":"BKG000007","quantity":1,"mapping_type":"auto","verified":false,"order_count":"19"},{"shop_sale_name":"바이오컴 종합 대사기능 검사","shop_opt_name":"스마트스토어 오픈기념: 1개","product_code":"BKG000005","quantity":1,"mapping_type":"auto","verified":false,"order_count":"18"},{"shop_sale_name":"[호두] 음식물 과민증 분석","shop_opt_name":"검사권 선택:[10%][3만 이벤트] 지연성알러지검사 1인권+뉴로마스터 1개","product_code":"BKG000001","quantity":1,"mapping_type":"auto","verified":false,"order_count":"15"},{"shop_sale_name":"[어떤약사] 종합 대사기능 분석","shop_opt_name":"검사권 선택:[10%] 종합 대사기능 분석 1인권","product_code":"BKG000005","quantity":1,"mapping_type":"auto","verified":false,"order_count":"15"}],"pagination":{"page":1,"limit":50,"total":182,"totalPages":4}}